03-16 23:48:41.576: I/Lab-ContentProvider(2506): Entered onCreateLoader()
03-16 23:48:50.676: I/Lab-ContentProvider(2506): Entered footerView.OnClickListener.onClick()
03-16 23:48:50.786: I/Lab-ContentProvider(2506): Starting Place Download
03-16 23:48:51.316: I/Lab-ContentProvider(2506): Entered addNewPlace()
03-16 23:48:55.947: I/Lab-ContentProvider(2506): Entered footerView.OnClickListener.onClick()
03-16 23:48:56.057: I/Lab-ContentProvider(2506): Starting Place Download
03-16 23:48:56.487: I/Lab-ContentProvider(2506): Entered addNewPlace()
03-16 23:49:01.977: I/Lab-ContentProvider(2506): Place: The Greenhouse Country: United States
03-16 23:49:02.087: I/Lab-ContentProvider(2506): Place: Berwyn Country: United States
